ST_PushPull/Binaries/Win64/ST_PushPull-Win64-DebugGame.exe	2023-08-03T15:43:01.839Z
ST_PushPull/Binaries/Win64/OpenImageDenoise.dll	2022-03-30T10:49:39.697Z
ST_PushPull/Binaries/Win64/tbb12.dll	2022-03-30T10:49:39.699Z
Engine/Extras/Redist/en-us/UE4PrereqSetup_x64.exe	2022-03-30T10:43:40.679Z
Engine/Binaries/ThirdParty/Oculus/OVRPlugin/OVRPlugin/Win64/OVRPlugin.dll	2022-03-30T10:38:25.419Z
Engine/Binaries/ThirdParty/DbgHelp/dbghelp.dll	2022-03-30T10:38:15.905Z
Engine/Binaries/ThirdParty/PhysX3/Win64/VS2015/PxFoundationPROFILE_x64.dll	2022-03-30T10:38:38.887Z
Engine/Binaries/ThirdParty/PhysX3/Win64/VS2015/PxPvdSDKPROFILE_x64.dll	2022-03-30T10:38:38.979Z
Engine/Binaries/ThirdParty/PhysX3/Win64/VS2015/PhysX3PROFILE_x64.dll	2022-03-30T10:38:38.305Z
Engine/Binaries/ThirdParty/PhysX3/Win64/VS2015/PhysX3CookingPROFILE_x64.dll	2022-03-30T10:38:38.253Z
Engine/Binaries/ThirdParty/PhysX3/Win64/VS2015/PhysX3CommonPROFILE_x64.dll	2022-03-30T10:38:37.809Z
Engine/Binaries/ThirdParty/PhysX3/Win64/VS2015/APEX_ClothingPROFILE_x64.dll	2022-03-30T10:38:33.948Z
Engine/Binaries/ThirdParty/PhysX3/Win64/VS2015/APEX_LegacyPROFILE_x64.dll	2022-03-30T10:38:35.592Z
Engine/Binaries/ThirdParty/PhysX3/Win64/VS2015/ApexFrameworkPROFILE_x64.dll	2022-03-30T10:38:36.518Z
Engine/Binaries/ThirdParty/PhysX3/Win64/VS2015/NvClothPROFILE_x64.dll	2022-03-30T10:38:36.721Z
Engine/Binaries/ThirdParty/Ogg/Win64/VS2015/libogg_64.dll	2022-03-30T10:38:25.425Z
Engine/Binaries/ThirdParty/Vorbis/Win64/VS2015/libvorbis_64.dll	2022-03-30T10:38:52.717Z
Engine/Binaries/ThirdParty/Vorbis/Win64/VS2015/libvorbisfile_64.dll	2022-03-30T10:38:52.718Z
Engine/Binaries/ThirdParty/NVIDIA/NVaftermath/Win64/GFSDK_Aftermath_Lib.x64.dll	2022-03-30T10:38:24.366Z
Engine/Binaries/ThirdParty/OpenXR/win64/openxr_loader.dll	2022-03-30T10:38:25.460Z
Engine/Binaries/ThirdParty/OpenVR/OpenVRv1_5_17/Win64/openvr_api.dll	2022-03-30T10:38:25.449Z
Engine/Binaries/ThirdParty/NVIDIA/GeForceNOW/Win64/GfnRuntimeSdk.dll	2022-03-30T10:38:24.360Z
Engine/Binaries/ThirdParty/Windows/WinPixEventRuntime/x64/WinPixEventRuntime.dll	2022-03-30T10:38:52.747Z
Engine/Binaries/ThirdParty/Windows/XAudio2_9/x64/xaudio2_9redist.dll	2022-03-30T10:38:53.635Z
ST_PushPull.exe	2023-08-03T15:49:14.104Z
